<svg width="30" height="30" viewBox="0 0 30 30" fill="none" xmlns="http://www.w3.org/2000/svg">
<g id="raphael:people">
<path id="Vector" d="M19.7493 19.3753C20.8996 18.7359 20.7505 16.2722 19.4174 13.8684C18.8455 12.8334 18.1424 11.9953 17.4393 11.4094C16.5985 12.0334 15.58 12.3717 14.533 12.375C13.4844 12.3727 12.4642 12.0342 11.6221 11.4094C10.9189 11.9953 10.2177 12.8344 9.64394 13.8684C8.30988 16.2713 8.16269 18.7359 9.31582 19.3753C9.82957 19.6678 10.3714 19.4484 10.9302 18.9103C10.8256 19.4901 10.7732 20.0781 10.7736 20.6672C10.7736 23.4216 11.8424 25.6472 13.1577 25.6472C13.9508 25.6472 14.3436 24.8363 14.5321 23.5959C14.7196 24.8278 15.1133 25.6472 15.9008 25.6472C17.2105 25.6472 18.2877 23.4206 18.2877 20.6672C18.2877 20.0484 18.2296 19.4578 18.1302 18.9113C18.6927 19.4503 19.2327 19.6734 19.7483 19.3772L19.7493 19.3753ZM14.5311 11.4375C15.063 11.4454 15.5912 11.3475 16.0849 11.1494C16.5786 10.9513 17.028 10.657 17.4069 10.2836C17.7858 9.91019 18.0866 9.46516 18.2919 8.9744C18.4972 8.48364 18.6028 7.95695 18.6026 7.42498C18.6024 6.89302 18.4964 6.3664 18.2908 5.87578C18.0852 5.38516 17.784 4.94034 17.4049 4.5672C17.0257 4.19407 16.5761 3.90007 16.0823 3.70231C15.5885 3.50456 15.0602 3.407 14.5283 3.41532C13.4751 3.43178 12.4707 3.86181 11.7318 4.61255C10.993 5.36328 10.5791 6.37448 10.5795 7.42779C10.5798 8.48111 10.9945 9.49202 11.7338 10.2422C12.4732 10.9924 13.4779 11.4218 14.5311 11.4375ZM22.588 13.9819C23.4447 13.9568 24.2579 13.5989 24.855 12.9841C25.4521 12.3693 25.7861 11.546 25.7861 10.6889C25.7861 9.83185 25.4521 9.00853 24.855 8.39371C24.2579 7.7789 23.4447 7.42098 22.588 7.39594C21.7144 7.39606 20.8766 7.74322 20.259 8.36103C19.6414 8.97885 19.2944 9.81672 19.2946 10.6903C19.2947 11.5639 19.6418 12.4017 20.2597 13.0193C20.8775 13.637 21.7153 13.9839 22.5889 13.9838L22.588 13.9819ZM26.6005 15.9788C26.1299 15.1275 25.5543 14.4394 24.9768 13.9584C24.286 14.4703 23.4496 14.7478 22.5899 14.7506C21.8811 14.7506 21.2211 14.5566 20.6436 14.235C21.1086 15.2597 21.3964 16.2975 21.4499 17.2256C21.538 18.6469 21.0936 19.7006 20.2049 20.1928C20.0144 20.2975 19.8073 20.3685 19.5927 20.4028C19.5393 20.7703 19.5027 21.1528 19.5027 21.5559C19.5027 23.8181 20.3793 25.6453 21.4602 25.6453C22.1108 25.6453 22.4352 24.9797 22.5889 23.9616C22.7418 24.9741 23.0652 25.6453 23.7139 25.6453C24.7874 25.6453 25.6733 23.8172 25.6733 21.5578C25.6733 21.0488 25.6236 20.5641 25.5421 20.1141C26.0033 20.5575 26.4477 20.7403 26.8714 20.4966C27.8155 19.9716 27.6936 17.9484 26.5996 15.9778L26.6005 15.9788ZM6.47425 13.9819C7.12537 13.9815 7.76176 13.7881 8.30296 13.4261C8.84416 13.0641 9.26588 12.5497 9.51479 11.9481C9.76371 11.3464 9.82864 10.6845 9.70139 10.0459C9.57413 9.40734 9.2604 8.82084 8.79987 8.36057C8.33933 7.90029 7.75266 7.5869 7.11402 7.46001C6.47539 7.33312 5.81348 7.39843 5.21196 7.64768C4.61044 7.89694 4.09634 8.31895 3.73464 8.86036C3.37293 9.40177 3.17988 10.0383 3.17988 10.6894C3.18013 11.563 3.52729 12.4008 4.14505 13.0186C4.76282 13.6363 5.60061 13.9835 6.47425 13.9838V13.9819ZM8.85082 20.19C7.35832 19.3603 7.22144 16.8863 8.42332 14.2331C7.82925 14.5704 7.15832 14.7489 6.47519 14.7516C5.57894 14.7516 4.75769 14.4516 4.08457 13.9584C3.508 14.4384 2.93332 15.1266 2.46082 15.9769C1.36675 17.9494 1.24675 19.9725 2.19175 20.4956C2.61363 20.7375 3.05894 20.5566 3.51738 20.115C3.43317 20.591 3.39082 21.0735 3.39082 21.5569C3.39082 23.8181 4.26738 25.6444 5.34832 25.6444C5.99894 25.6444 6.32332 24.9788 6.47707 23.9616C6.63175 24.9741 6.95519 25.6453 7.60207 25.6453C8.67738 25.6453 9.56144 23.8172 9.56144 21.5578C9.56144 21.1519 9.52394 20.7684 9.4705 20.4009C9.25353 20.3667 9.04416 20.295 8.85175 20.1891L8.85082 20.19Z" fill="white"/>
</g>
</svg>
