<svg width="20" height="20" viewBox="0 0 20 20" fill="none" xmlns="http://www.w3.org/2000/svg">
<g id="raphael:people">
<path id="Vector" d="M13.1662 12.573C13.9331 12.1581 13.8337 10.5593 12.945 8.99949C12.5637 8.32786 12.095 7.78398 11.6262 7.40375C11.0657 7.80866 10.3867 8.02825 9.68874 8.03037C8.98967 8.02886 8.30951 7.80924 7.74812 7.40375C7.27937 7.78398 6.81187 8.32846 6.42937 8.99949C5.53999 10.5587 5.44187 12.1581 6.21062 12.573C6.55312 12.7628 6.91437 12.6205 7.28687 12.2713C7.21713 12.6475 7.1822 13.029 7.18249 13.4113C7.18249 15.1987 7.89499 16.6429 8.77187 16.6429C9.30062 16.6429 9.56249 16.1167 9.68812 15.3118C9.81312 16.1112 10.0756 16.6429 10.6006 16.6429C11.4737 16.6429 12.1919 15.1981 12.1919 13.4113C12.1919 13.0098 12.1531 12.6265 12.0869 12.2719C12.4619 12.6217 12.8219 12.7665 13.1656 12.5742L13.1662 12.573ZM9.68749 7.42201C10.0421 7.42716 10.3942 7.36361 10.7233 7.23506C11.0525 7.10651 11.3521 6.91552 11.6047 6.67321C11.8572 6.43091 12.0578 6.14212 12.1947 5.82365C12.3315 5.50519 12.4019 5.16341 12.4018 4.81821C12.4017 4.473 12.331 4.13127 12.1939 3.8129C12.0569 3.49453 11.8561 3.20588 11.6033 2.96374C11.3506 2.72161 11.0508 2.53082 10.7216 2.4025C10.3924 2.27417 10.0402 2.21086 9.68562 2.21626C8.98349 2.22695 8.31386 2.506 7.8213 2.99317C7.32875 3.48033 7.0528 4.13652 7.05305 4.82003C7.0533 5.50355 7.32972 6.15954 7.82262 6.64637C8.31552 7.1332 8.98536 7.4118 9.68749 7.42201ZM15.0587 9.0731C15.6299 9.05685 16.172 8.82459 16.5701 8.42562C16.9682 8.02666 17.1908 7.49239 17.1908 6.93623C17.1908 6.38007 16.9682 5.8458 16.5701 5.44684C16.172 5.04787 15.6299 4.81561 15.0587 4.79936C14.4763 4.79944 13.9178 5.02472 13.5061 5.42563C13.0943 5.82654 12.863 6.37025 12.8631 6.93714C12.8632 7.50404 13.0946 8.04768 13.5065 8.44848C13.9184 8.84927 14.477 9.0744 15.0594 9.07431L15.0587 9.0731ZM17.7337 10.3689C17.42 9.81651 17.0362 9.36998 16.6512 9.05789C16.1907 9.39003 15.6332 9.57015 15.06 9.57195C14.5875 9.57195 14.1475 9.44602 13.7625 9.23735C14.0725 9.90229 14.2644 10.5757 14.3 11.178C14.3587 12.1003 14.0625 12.7841 13.47 13.1035C13.343 13.1714 13.2049 13.2175 13.0619 13.2398C13.0262 13.4782 13.0019 13.7265 13.0019 13.988C13.0019 15.456 13.5862 16.6417 14.3069 16.6417C14.7406 16.6417 14.9569 16.2098 15.0594 15.5491C15.1612 16.2061 15.3769 16.6417 15.8094 16.6417C16.525 16.6417 17.1156 15.4554 17.1156 13.9893C17.1156 13.6589 17.0825 13.3444 17.0281 13.0524C17.3356 13.3401 17.6319 13.4588 17.9144 13.3006C18.5437 12.9599 18.4625 11.6471 17.7331 10.3683L17.7337 10.3689ZM4.31624 9.0731C4.75032 9.07286 5.17457 8.94734 5.53538 8.71243C5.89618 8.47752 6.17732 8.14375 6.34327 7.75332C6.50921 7.36289 6.5525 6.93334 6.46766 6.51897C6.38283 6.10459 6.17367 5.72401 5.86665 5.42532C5.55962 5.12664 5.16851 4.92328 4.74275 4.84093C4.317 4.75859 3.87572 4.80098 3.47471 4.96272C3.0737 5.12447 2.73096 5.39832 2.48983 5.74965C2.24869 6.10098 2.11999 6.51401 2.11999 6.93653C2.12016 7.50346 2.3516 8.04712 2.76344 8.44799C3.17528 8.84887 3.73381 9.07415 4.31624 9.07431V9.0731ZM5.90062 13.1017C4.90562 12.5633 4.81437 10.9578 5.61562 9.23614C5.21957 9.455 4.77228 9.57086 4.31687 9.57256C3.71937 9.57256 3.17187 9.37789 2.72312 9.05789C2.33874 9.36937 1.95562 9.81591 1.64062 10.3677C0.911241 11.6477 0.831241 12.9605 1.46124 13.3C1.74249 13.4569 2.03937 13.3395 2.34499 13.053C2.28885 13.3619 2.26062 13.675 2.26062 13.9887C2.26062 15.456 2.84499 16.6411 3.56562 16.6411C3.99937 16.6411 4.21562 16.2092 4.31812 15.5491C4.42124 16.2061 4.63687 16.6417 5.06812 16.6417C5.78499 16.6417 6.37437 15.4554 6.37437 13.9893C6.37437 13.7258 6.34937 13.477 6.31374 13.2385C6.16909 13.2163 6.02951 13.1698 5.90124 13.1011L5.90062 13.1017Z" fill="#2EA263"/>
</g>
</svg>
