<svg width="30" height="30" viewBox="0 0 30 30" fill="none" xmlns="http://www.w3.org/2000/svg">
<rect width="30" height="30" rx="52" fill="#2EA263"/>
<path d="M146.041 156.567C164.135 168.775 199.178 182.182 199.178 182.182C202.98 183.997 205.109 183.993 209 182.182C209 182.182 244.044 168.775 262.137 156.567C284.755 141.307 310.642 168.012 293.747 186.542C280.231 201.366 265.771 211.976 260.23 215.427C243.589 228.507 245.872 236.534 249.856 245.402C266.751 283.007 269.827 287.02 271.111 293.907C274.109 309.985 276.834 329.332 247.676 332.874C218.519 336.417 209 263.932 209 263.932C209 263.932 207.5 255.5 204 255.5C200.5 255.5 199.178 263.932 199.178 263.932C199.178 263.932 189.66 336.417 160.502 332.874C131.345 329.332 134.07 309.984 137.067 293.907C138.351 287.02 141.427 283.007 158.322 245.402C162.307 236.534 164.59 228.507 147.948 215.427C142.408 211.975 127.947 201.366 114.431 186.542C97.5361 168.012 123.424 141.307 146.041 156.567Z" fill="white"/>
<path d="M244 115.5C244 137.868 225.868 156 203.5 156C181.132 156 163 137.868 163 115.5C163 93.1325 181.132 75 203.5 75C225.868 75 244 93.1325 244 115.5Z" fill="white"/>
</svg>
